[
  {
    "ProductId": 1,
    "ProductName": "MacBook Pro 14",
    "ProductDescription": "The lightning-fast Apple M2 Pro chip can cope with ambitious projects and handles the most graphically demanding projects.",
    "ProductImage": "laptop.png",
    "Price": 2299.0,
    "ManufactureDate": "2022-06-18",
    "ExpiryDate": null,
    "Rating": 4.5,
    "StockQuantity": 100,
    "SalesCount": 10,
    "Discount": 0.15,
    "SupplierId": 1
  },
  {
    "ProductId": 2,
    "ProductName": "Random Vitamin boost",
    "ProductDescription": "These are vitamins for boosting your imunity system. Every day start with random pick of the best Vitamins we can deliver.",
    "ProductImage": "vitamins.png",
    "Price": 20.99,
    "ManufactureDate": "2023-08-18",
    "ExpiryDate": "2024-08-18",
    "Rating": 5.0,
    "StockQuantity": 150,
    "SalesCount": 50,
    "Discount": 0.1,
    "SupplierId": 2
  },
  {
    "ProductId": 3,
    "ProductName": "ASUS Zenbook UX5400EA",
    "ProductDescription": "The premium Tech Black design, which the ASUS Zenbook Pro 16X OLED notebook has,  all-metal CNC machined structure with high strength.",
    "ProductImage": "asus.png",
    "Price": 2749.0,
    "ManufactureDate": "2023-05-18",
    "ExpiryDate": null,
    "Rating": 4.5,
    "StockQuantity": 100,
    "SalesCount": 25,
    "Discount": 0.3,
    "SupplierId": 1
  },
  {
    "ProductId": 4,
    "ProductName": "PlayStation 4 500GB Slim",
    "ProductDescription": "Home video game console developed by Sony Interactive Entertainment. Announced as the successor to the PlayStation 3",
    "ProductImage": "ps4.png",
    "Price": 299.9,
    "ManufactureDate": "2013-12-18",
    "ExpiryDate": null,
    "Rating": 4.2,
    "StockQuantity": 50,
    "SalesCount": 200,
    "Discount": 0.2,
    "SupplierId": 1
  },
  {
    "ProductId": 5,
    "ProductName": "Blue book",
    "ProductDescription": "John Doe spent his life dealing drugs and getting into fights until, in 2011, he struck a deadly blow. Then meeting his victims parents.",
    "ProductImage": "book.png",
    "Price": 15.99,
    "ManufactureDate": "2022-12-06",
    "ExpiryDate": null,
    "Rating": 3.5,
    "StockQuantity": 150,
    "SalesCount": 25,
    "Discount": 0.0,
    "SupplierId": 3
  }
]
